<mxfile host="app.diagrams.net" modified="2020-07-26T15:17:57.814Z" agent="5.0 (X11; Linux x86_64) AppleWebKit/537.36 (KHTML, like Gecko) Chrome/84.0.4147.89 Safari/537.36" etag="JQvPjTpZEdeAQubaw7OZ" version="13.5.3" type="gitlab">
  <diagram id="B_wrelIK5i3TokEQjEx6" name="Page-1">
    <mxGraphModel dx="1019" dy="1698" grid="1" gridSize="10" guides="1" tooltips="1" connect="1" arrows="1" fold="1" page="1" pageScale="1" pageWidth="850" pageHeight="1100" math="0" shadow="0">
      <root>
        <mxCell id="0" />
        <mxCell id="1" parent="0" />
        <mxCell id="vxe0DuPUpDusbadzJVll-7" value="" style="html=1;" vertex="1" parent="1">
          <mxGeometry x="50" y="-1050" width="750" height="650" as="geometry" />
        </mxCell>
        <mxCell id="vxe0DuPUpDusbadzJVll-8" value="" style="endArrow=none;dashed=1;html=1;dashPattern=1 3;strokeWidth=2;" edge="1" parent="1">
          <mxGeometry width="50" height="50" relative="1" as="geometry">
            <mxPoint x="140" y="-480" as="sourcePoint" />
            <mxPoint x="140" y="-900" as="targetPoint" />
          </mxGeometry>
        </mxCell>
        <mxCell id="vxe0DuPUpDusbadzJVll-9" value="Administrator" style="shape=umlActor;verticalLabelPosition=bottom;verticalAlign=top;html=1;outlineConnect=0;" vertex="1" parent="1">
          <mxGeometry x="120" y="-1000" width="40" height="70" as="geometry" />
        </mxCell>
        <mxCell id="vxe0DuPUpDusbadzJVll-10" value="" style="endArrow=classic;html=1;entryX=0.25;entryY=0;entryDx=0;entryDy=0;" edge="1" parent="1">
          <mxGeometry width="50" height="50" relative="1" as="geometry">
            <mxPoint x="140" y="-850" as="sourcePoint" />
            <mxPoint x="252.5" y="-850" as="targetPoint" />
          </mxGeometry>
        </mxCell>
        <mxCell id="vxe0DuPUpDusbadzJVll-11" value="1. Loginaplikasi&lt;br&gt;website()" style="text;html=1;align=center;verticalAlign=middle;resizable=0;points=[];autosize=1;" vertex="1" parent="1">
          <mxGeometry x="150" y="-890" width="100" height="30" as="geometry" />
        </mxCell>
        <mxCell id="vxe0DuPUpDusbadzJVll-12" value="2. PilihMenu&lt;br&gt;KualifikasiSkill()" style="text;html=1;align=center;verticalAlign=middle;resizable=0;points=[];autosize=1;" vertex="1" parent="1">
          <mxGeometry x="265" y="-870" width="100" height="30" as="geometry" />
        </mxCell>
        <mxCell id="vxe0DuPUpDusbadzJVll-13" value="Login" style="whiteSpace=wrap;html=1;" vertex="1" parent="1">
          <mxGeometry x="205" y="-990" width="100" height="45" as="geometry" />
        </mxCell>
        <mxCell id="vxe0DuPUpDusbadzJVll-14" value="" style="endArrow=none;dashed=1;html=1;entryX=0.5;entryY=1;entryDx=0;entryDy=0;exitX=0.5;exitY=0;exitDx=0;exitDy=0;" edge="1" parent="1" target="vxe0DuPUpDusbadzJVll-13">
          <mxGeometry width="50" height="50" relative="1" as="geometry">
            <mxPoint x="255" y="-850" as="sourcePoint" />
            <mxPoint x="510" y="-730" as="targetPoint" />
          </mxGeometry>
        </mxCell>
        <mxCell id="vxe0DuPUpDusbadzJVll-15" value="" style="endArrow=none;dashed=1;html=1;" edge="1" parent="1">
          <mxGeometry width="50" height="50" relative="1" as="geometry">
            <mxPoint x="255" y="-470" as="sourcePoint" />
            <mxPoint x="255" y="-520" as="targetPoint" />
          </mxGeometry>
        </mxCell>
        <mxCell id="vxe0DuPUpDusbadzJVll-16" value="Data Kualifikasi Skill" style="whiteSpace=wrap;html=1;" vertex="1" parent="1">
          <mxGeometry x="320" y="-987.5" width="100" height="45" as="geometry" />
        </mxCell>
        <mxCell id="vxe0DuPUpDusbadzJVll-17" value="" style="edgeStyle=orthogonalEdgeStyle;rounded=0;orthogonalLoop=1;jettySize=auto;html=1;" edge="1" parent="1" source="vxe0DuPUpDusbadzJVll-18" target="vxe0DuPUpDusbadzJVll-23">
          <mxGeometry relative="1" as="geometry">
            <Array as="points">
              <mxPoint x="290" y="-840" />
              <mxPoint x="290" y="-840" />
            </Array>
          </mxGeometry>
        </mxCell>
        <mxCell id="vxe0DuPUpDusbadzJVll-18" value="" style="shape=ext;rounded=1;html=1;whiteSpace=wrap;" vertex="1" parent="1">
          <mxGeometry x="250" y="-850" width="10" height="330" as="geometry" />
        </mxCell>
        <mxCell id="vxe0DuPUpDusbadzJVll-19" value="" style="edgeStyle=orthogonalEdgeStyle;rounded=0;orthogonalLoop=1;jettySize=auto;html=1;" edge="1" parent="1" source="vxe0DuPUpDusbadzJVll-23" target="vxe0DuPUpDusbadzJVll-18">
          <mxGeometry relative="1" as="geometry">
            <Array as="points">
              <mxPoint x="290" y="-550" />
              <mxPoint x="290" y="-550" />
            </Array>
          </mxGeometry>
        </mxCell>
        <mxCell id="vxe0DuPUpDusbadzJVll-20" value="" style="edgeStyle=orthogonalEdgeStyle;rounded=0;orthogonalLoop=1;jettySize=auto;html=1;" edge="1" parent="1" source="vxe0DuPUpDusbadzJVll-23" target="vxe0DuPUpDusbadzJVll-27">
          <mxGeometry relative="1" as="geometry">
            <Array as="points">
              <mxPoint x="430" y="-820" />
              <mxPoint x="430" y="-820" />
            </Array>
          </mxGeometry>
        </mxCell>
        <mxCell id="vxe0DuPUpDusbadzJVll-21" value="" style="edgeStyle=orthogonalEdgeStyle;rounded=0;orthogonalLoop=1;jettySize=auto;html=1;" edge="1" parent="1" source="vxe0DuPUpDusbadzJVll-23" target="vxe0DuPUpDusbadzJVll-32">
          <mxGeometry relative="1" as="geometry">
            <Array as="points">
              <mxPoint x="470" y="-710" />
              <mxPoint x="470" y="-710" />
            </Array>
          </mxGeometry>
        </mxCell>
        <mxCell id="vxe0DuPUpDusbadzJVll-22" style="edgeStyle=orthogonalEdgeStyle;rounded=0;orthogonalLoop=1;jettySize=auto;html=1;entryX=0;entryY=0;entryDx=0;entryDy=0;" edge="1" parent="1" source="vxe0DuPUpDusbadzJVll-23" target="vxe0DuPUpDusbadzJVll-38">
          <mxGeometry relative="1" as="geometry">
            <Array as="points">
              <mxPoint x="560" y="-620" />
              <mxPoint x="560" y="-620" />
            </Array>
          </mxGeometry>
        </mxCell>
        <mxCell id="vxe0DuPUpDusbadzJVll-23" value="" style="shape=ext;rounded=1;html=1;whiteSpace=wrap;" vertex="1" parent="1">
          <mxGeometry x="370" y="-840" width="10" height="290" as="geometry" />
        </mxCell>
        <mxCell id="vxe0DuPUpDusbadzJVll-24" value="" style="endArrow=none;dashed=1;html=1;exitX=0;exitY=0;exitDx=0;exitDy=0;" edge="1" parent="1">
          <mxGeometry width="50" height="50" relative="1" as="geometry">
            <mxPoint x="375" y="-839.9999999999995" as="sourcePoint" />
            <mxPoint x="375" y="-942.5" as="targetPoint" />
          </mxGeometry>
        </mxCell>
        <mxCell id="vxe0DuPUpDusbadzJVll-25" value="" style="endArrow=none;dashed=1;html=1;" edge="1" parent="1">
          <mxGeometry width="50" height="50" relative="1" as="geometry">
            <mxPoint x="375" y="-470" as="sourcePoint" />
            <mxPoint x="374.5" y="-550" as="targetPoint" />
          </mxGeometry>
        </mxCell>
        <mxCell id="vxe0DuPUpDusbadzJVll-26" value="" style="edgeStyle=orthogonalEdgeStyle;rounded=0;orthogonalLoop=1;jettySize=auto;html=1;" edge="1" parent="1" source="vxe0DuPUpDusbadzJVll-27" target="vxe0DuPUpDusbadzJVll-23">
          <mxGeometry relative="1" as="geometry">
            <Array as="points">
              <mxPoint x="440" y="-750" />
              <mxPoint x="440" y="-750" />
            </Array>
          </mxGeometry>
        </mxCell>
        <mxCell id="vxe0DuPUpDusbadzJVll-27" value="" style="shape=ext;rounded=1;html=1;whiteSpace=wrap;" vertex="1" parent="1">
          <mxGeometry x="490" y="-820" width="10" height="70" as="geometry" />
        </mxCell>
        <mxCell id="vxe0DuPUpDusbadzJVll-28" value="3. InputForm&lt;br&gt;KualifikasiSkill()" style="text;html=1;align=center;verticalAlign=middle;resizable=0;points=[];autosize=1;" vertex="1" parent="1">
          <mxGeometry x="390" y="-855" width="100" height="30" as="geometry" />
        </mxCell>
        <mxCell id="vxe0DuPUpDusbadzJVll-29" value="Tambah Data Kualifikasi Skill" style="whiteSpace=wrap;html=1;" vertex="1" parent="1">
          <mxGeometry x="438" y="-987.5" width="100" height="45" as="geometry" />
        </mxCell>
        <mxCell id="vxe0DuPUpDusbadzJVll-30" value="" style="endArrow=none;dashed=1;html=1;exitX=0.5;exitY=0;exitDx=0;exitDy=0;entryX=0.579;entryY=1.034;entryDx=0;entryDy=0;entryPerimeter=0;" edge="1" parent="1" source="vxe0DuPUpDusbadzJVll-27" target="vxe0DuPUpDusbadzJVll-29">
          <mxGeometry width="50" height="50" relative="1" as="geometry">
            <mxPoint x="494.5" y="-827.4999999999995" as="sourcePoint" />
            <mxPoint x="494.5" y="-930" as="targetPoint" />
          </mxGeometry>
        </mxCell>
        <mxCell id="vxe0DuPUpDusbadzJVll-31" style="edgeStyle=orthogonalEdgeStyle;rounded=0;orthogonalLoop=1;jettySize=auto;html=1;exitX=0;exitY=1;exitDx=0;exitDy=0;entryX=1.145;entryY=0.583;entryDx=0;entryDy=0;entryPerimeter=0;" edge="1" parent="1" source="vxe0DuPUpDusbadzJVll-32" target="vxe0DuPUpDusbadzJVll-23">
          <mxGeometry relative="1" as="geometry">
            <Array as="points">
              <mxPoint x="520" y="-671" />
            </Array>
          </mxGeometry>
        </mxCell>
        <mxCell id="vxe0DuPUpDusbadzJVll-32" value="" style="shape=ext;rounded=1;html=1;whiteSpace=wrap;" vertex="1" parent="1">
          <mxGeometry x="610" y="-710" width="10" height="40" as="geometry" />
        </mxCell>
        <mxCell id="vxe0DuPUpDusbadzJVll-33" value="4. LisData&lt;br&gt;Kualifikasi()" style="text;html=1;align=center;verticalAlign=middle;resizable=0;points=[];autosize=1;" vertex="1" parent="1">
          <mxGeometry x="390" y="-750" width="80" height="30" as="geometry" />
        </mxCell>
        <mxCell id="vxe0DuPUpDusbadzJVll-34" value="5. UpdateForm&lt;br&gt;Kualifikasi()" style="text;html=1;align=center;verticalAlign=middle;resizable=0;points=[];autosize=1;" vertex="1" parent="1">
          <mxGeometry x="470" y="-740" width="100" height="30" as="geometry" />
        </mxCell>
        <mxCell id="vxe0DuPUpDusbadzJVll-35" value="Edit Data Kualifikasi Skill" style="whiteSpace=wrap;html=1;" vertex="1" parent="1">
          <mxGeometry x="559" y="-987.5" width="100" height="45" as="geometry" />
        </mxCell>
        <mxCell id="vxe0DuPUpDusbadzJVll-36" value="" style="endArrow=none;dashed=1;html=1;exitX=0.5;exitY=0;exitDx=0;exitDy=0;entryX=0.57;entryY=1.034;entryDx=0;entryDy=0;entryPerimeter=0;" edge="1" parent="1" source="vxe0DuPUpDusbadzJVll-32" target="vxe0DuPUpDusbadzJVll-35">
          <mxGeometry width="50" height="50" relative="1" as="geometry">
            <mxPoint x="609" y="-821.53" as="sourcePoint" />
            <mxPoint x="610" y="-910" as="targetPoint" />
          </mxGeometry>
        </mxCell>
        <mxCell id="vxe0DuPUpDusbadzJVll-37" style="edgeStyle=orthogonalEdgeStyle;rounded=0;orthogonalLoop=1;jettySize=auto;html=1;exitX=1;exitY=0.5;exitDx=0;exitDy=0;entryX=1.367;entryY=0.897;entryDx=0;entryDy=0;entryPerimeter=0;" edge="1" parent="1" source="vxe0DuPUpDusbadzJVll-38" target="vxe0DuPUpDusbadzJVll-23">
          <mxGeometry relative="1" as="geometry">
            <Array as="points">
              <mxPoint x="735" y="-600" />
              <mxPoint x="735" y="-580" />
            </Array>
          </mxGeometry>
        </mxCell>
        <mxCell id="vxe0DuPUpDusbadzJVll-38" value="" style="shape=ext;rounded=1;html=1;whiteSpace=wrap;" vertex="1" parent="1">
          <mxGeometry x="730" y="-620" width="10" height="40" as="geometry" />
        </mxCell>
        <mxCell id="vxe0DuPUpDusbadzJVll-39" value="Delete Data Kualifikasi Skill" style="whiteSpace=wrap;html=1;" vertex="1" parent="1">
          <mxGeometry x="680" y="-987.5" width="100" height="45" as="geometry" />
        </mxCell>
        <mxCell id="vxe0DuPUpDusbadzJVll-40" value="" style="endArrow=none;dashed=1;html=1;entryX=0.57;entryY=1.034;entryDx=0;entryDy=0;entryPerimeter=0;exitX=0.5;exitY=0;exitDx=0;exitDy=0;" edge="1" parent="1" source="vxe0DuPUpDusbadzJVll-38">
          <mxGeometry width="50" height="50" relative="1" as="geometry">
            <mxPoint x="735" y="-630" as="sourcePoint" />
            <mxPoint x="735" y="-942.5" as="targetPoint" />
          </mxGeometry>
        </mxCell>
        <mxCell id="vxe0DuPUpDusbadzJVll-41" value="" style="endArrow=none;dashed=1;html=1;entryX=0.57;entryY=1.034;entryDx=0;entryDy=0;entryPerimeter=0;" edge="1" parent="1">
          <mxGeometry width="50" height="50" relative="1" as="geometry">
            <mxPoint x="496" y="-470" as="sourcePoint" />
            <mxPoint x="495.5" y="-750.97" as="targetPoint" />
          </mxGeometry>
        </mxCell>
        <mxCell id="vxe0DuPUpDusbadzJVll-42" value="" style="endArrow=none;dashed=1;html=1;entryX=0.5;entryY=1;entryDx=0;entryDy=0;" edge="1" parent="1" target="vxe0DuPUpDusbadzJVll-32">
          <mxGeometry width="50" height="50" relative="1" as="geometry">
            <mxPoint x="615" y="-470" as="sourcePoint" />
            <mxPoint x="615.5" y="-660" as="targetPoint" />
          </mxGeometry>
        </mxCell>
        <mxCell id="vxe0DuPUpDusbadzJVll-43" value="" style="endArrow=none;dashed=1;html=1;entryX=0.5;entryY=1;entryDx=0;entryDy=0;" edge="1" parent="1">
          <mxGeometry width="50" height="50" relative="1" as="geometry">
            <mxPoint x="735" y="-470" as="sourcePoint" />
            <mxPoint x="734.5" y="-580" as="targetPoint" />
          </mxGeometry>
        </mxCell>
        <mxCell id="vxe0DuPUpDusbadzJVll-44" value="6. ListDataKualifikasi()" style="text;html=1;align=center;verticalAlign=middle;resizable=0;points=[];autosize=1;" vertex="1" parent="1">
          <mxGeometry x="423" y="-670" width="130" height="20" as="geometry" />
        </mxCell>
        <mxCell id="vxe0DuPUpDusbadzJVll-45" value="7. DeleteFormKualifikasi()" style="text;html=1;align=center;verticalAlign=middle;resizable=0;points=[];autosize=1;" vertex="1" parent="1">
          <mxGeometry x="540" y="-650" width="150" height="20" as="geometry" />
        </mxCell>
        <mxCell id="vxe0DuPUpDusbadzJVll-46" value="8. DataKualifikasiSkillTerhapus()" style="text;html=1;align=center;verticalAlign=middle;resizable=0;points=[];autosize=1;" vertex="1" parent="1">
          <mxGeometry x="469" y="-570" width="190" height="20" as="geometry" />
        </mxCell>
        <mxCell id="vxe0DuPUpDusbadzJVll-47" value="9. PilihMenu&lt;br&gt;Laniiya()" style="text;html=1;align=center;verticalAlign=middle;resizable=0;points=[];autosize=1;" vertex="1" parent="1">
          <mxGeometry x="275" y="-540" width="80" height="30" as="geometry" />
        </mxCell>
      </root>
    </mxGraphModel>
  </diagram>
</mxfile>
