<mxfile host="app.diagrams.net" modified="2020-07-28T04:06:28.810Z" agent="5.0 (X11; Linux x86_64) AppleWebKit/537.36 (KHTML, like Gecko) Chrome/84.0.4147.89 Safari/537.36" etag="Pa7etKjYup9OuEopejoO" version="13.5.3" type="gitlab">
  <diagram id="z9gt2ESeprJoZfnUoeRQ" name="Page-1">
    <mxGraphModel dx="169" dy="598" grid="1" gridSize="10" guides="1" tooltips="1" connect="1" arrows="1" fold="1" page="1" pageScale="1" pageWidth="850" pageHeight="1100" math="0" shadow="0">
      <root>
        <mxCell id="0" />
        <mxCell id="1" parent="0" />
        <mxCell id="Qvqk4Cczss71Y9SFX0pK-57" value="" style="rounded=0;whiteSpace=wrap;html=1;" parent="1" vertex="1">
          <mxGeometry x="870" y="45" width="720" height="580" as="geometry" />
        </mxCell>
        <mxCell id="Qvqk4Cczss71Y9SFX0pK-58" value="Adminisrator" style="shape=umlActor;verticalLabelPosition=bottom;verticalAlign=top;html=1;outlineConnect=0;" parent="1" vertex="1">
          <mxGeometry x="900" y="70" width="30" height="60" as="geometry" />
        </mxCell>
        <mxCell id="Qvqk4Cczss71Y9SFX0pK-59" value="" style="endArrow=none;dashed=1;html=1;dashPattern=1 3;strokeWidth=2;" parent="1" target="Qvqk4Cczss71Y9SFX0pK-58" edge="1">
          <mxGeometry width="50" height="50" relative="1" as="geometry">
            <mxPoint x="915" y="590" as="sourcePoint" />
            <mxPoint x="950" y="190" as="targetPoint" />
          </mxGeometry>
        </mxCell>
        <mxCell id="Qvqk4Cczss71Y9SFX0pK-60" value="" style="endArrow=none;dashed=1;html=1;" parent="1" source="Qvqk4Cczss71Y9SFX0pK-71" edge="1">
          <mxGeometry width="50" height="50" relative="1" as="geometry">
            <mxPoint x="1040" y="730" as="sourcePoint" />
            <mxPoint x="1040" y="130" as="targetPoint" />
          </mxGeometry>
        </mxCell>
        <mxCell id="Qvqk4Cczss71Y9SFX0pK-61" value="&lt;meta charset=&quot;utf-8&quot;&gt;&lt;span style=&quot;color: rgb(0, 0, 0); font-family: helvetica; font-size: 12px; font-style: normal; font-weight: 400; letter-spacing: normal; text-align: center; text-indent: 0px; text-transform: none; word-spacing: 0px; background-color: rgb(248, 249, 250); display: inline; float: none;&quot;&gt;Login&lt;/span&gt;" style="rounded=0;whiteSpace=wrap;html=1;" parent="1" vertex="1">
          <mxGeometry x="990" y="80" width="100" height="50" as="geometry" />
        </mxCell>
        <mxCell id="Qvqk4Cczss71Y9SFX0pK-62" value="" style="endArrow=none;dashed=1;html=1;" parent="1" source="Qvqk4Cczss71Y9SFX0pK-78" edge="1">
          <mxGeometry width="50" height="50" relative="1" as="geometry">
            <mxPoint x="1159.5" y="730" as="sourcePoint" />
            <mxPoint x="1159.5" y="130" as="targetPoint" />
          </mxGeometry>
        </mxCell>
        <mxCell id="Qvqk4Cczss71Y9SFX0pK-63" value="&lt;span style=&quot;color: rgb(0 , 0 , 0) ; font-family: &amp;#34;helvetica&amp;#34; ; font-size: 12px ; font-style: normal ; font-weight: 400 ; letter-spacing: normal ; text-align: center ; text-indent: 0px ; text-transform: none ; word-spacing: 0px ; background-color: rgb(248 , 249 , 250) ; display: inline ; float: none&quot;&gt;Data Kota&lt;/span&gt;" style="rounded=0;whiteSpace=wrap;html=1;" parent="1" vertex="1">
          <mxGeometry x="1110" y="80" width="100" height="50" as="geometry" />
        </mxCell>
        <mxCell id="Qvqk4Cczss71Y9SFX0pK-64" value="&lt;span style=&quot;color: rgb(0 , 0 , 0) ; font-family: &amp;#34;helvetica&amp;#34; ; font-size: 12px ; font-style: normal ; font-weight: 400 ; letter-spacing: normal ; text-align: center ; text-indent: 0px ; text-transform: none ; word-spacing: 0px ; background-color: rgb(248 , 249 , 250) ; display: inline ; float: none&quot;&gt;Tambah Data&amp;nbsp;&lt;/span&gt;&lt;span style=&quot;font-family: &amp;#34;helvetica&amp;#34;&quot;&gt;Kota&lt;/span&gt;" style="rounded=0;whiteSpace=wrap;html=1;" parent="1" vertex="1">
          <mxGeometry x="1230" y="80" width="100" height="50" as="geometry" />
        </mxCell>
        <mxCell id="Qvqk4Cczss71Y9SFX0pK-65" value="" style="endArrow=none;dashed=1;html=1;" parent="1" source="Qvqk4Cczss71Y9SFX0pK-82" edge="1">
          <mxGeometry width="50" height="50" relative="1" as="geometry">
            <mxPoint x="1279.5" y="730" as="sourcePoint" />
            <mxPoint x="1279.5" y="130" as="targetPoint" />
          </mxGeometry>
        </mxCell>
        <mxCell id="Qvqk4Cczss71Y9SFX0pK-66" value="&lt;span style=&quot;color: rgb(0 , 0 , 0) ; font-family: &amp;#34;helvetica&amp;#34; ; font-size: 12px ; font-style: normal ; font-weight: 400 ; letter-spacing: normal ; text-align: center ; text-indent: 0px ; text-transform: none ; word-spacing: 0px ; background-color: rgb(248 , 249 , 250) ; display: inline ; float: none&quot;&gt;Edit Data&amp;nbsp;&lt;/span&gt;&lt;span style=&quot;font-family: &amp;#34;helvetica&amp;#34;&quot;&gt;Kota&lt;/span&gt;" style="rounded=0;whiteSpace=wrap;html=1;" parent="1" vertex="1">
          <mxGeometry x="1350" y="80" width="100" height="50" as="geometry" />
        </mxCell>
        <mxCell id="Qvqk4Cczss71Y9SFX0pK-67" value="" style="endArrow=none;dashed=1;html=1;" parent="1" source="Qvqk4Cczss71Y9SFX0pK-86" edge="1">
          <mxGeometry width="50" height="50" relative="1" as="geometry">
            <mxPoint x="1399.5" y="730" as="sourcePoint" />
            <mxPoint x="1399.5" y="130" as="targetPoint" />
          </mxGeometry>
        </mxCell>
        <mxCell id="Qvqk4Cczss71Y9SFX0pK-68" value="&lt;span style=&quot;color: rgb(0 , 0 , 0) ; font-family: &amp;#34;helvetica&amp;#34; ; font-size: 12px ; font-style: normal ; font-weight: 400 ; letter-spacing: normal ; text-align: center ; text-indent: 0px ; text-transform: none ; word-spacing: 0px ; background-color: rgb(248 , 249 , 250) ; display: inline ; float: none&quot;&gt;Delete Data&amp;nbsp;&lt;/span&gt;&lt;span style=&quot;font-family: &amp;#34;helvetica&amp;#34;&quot;&gt;Kota&lt;/span&gt;" style="rounded=0;whiteSpace=wrap;html=1;" parent="1" vertex="1">
          <mxGeometry x="1480" y="80" width="100" height="50" as="geometry" />
        </mxCell>
        <mxCell id="Qvqk4Cczss71Y9SFX0pK-69" value="" style="endArrow=none;dashed=1;html=1;" parent="1" edge="1">
          <mxGeometry width="50" height="50" relative="1" as="geometry">
            <mxPoint x="1530" y="590" as="sourcePoint" />
            <mxPoint x="1529.5" y="130" as="targetPoint" />
          </mxGeometry>
        </mxCell>
        <mxCell id="Qvqk4Cczss71Y9SFX0pK-70" value="" style="edgeStyle=orthogonalEdgeStyle;rounded=0;orthogonalLoop=1;jettySize=auto;html=1;" parent="1" source="Qvqk4Cczss71Y9SFX0pK-71" target="Qvqk4Cczss71Y9SFX0pK-78" edge="1">
          <mxGeometry relative="1" as="geometry">
            <Array as="points">
              <mxPoint x="1110" y="180" />
              <mxPoint x="1110" y="180" />
            </Array>
          </mxGeometry>
        </mxCell>
        <mxCell id="Qvqk4Cczss71Y9SFX0pK-71" value="" style="rounded=1;whiteSpace=wrap;html=1;" parent="1" vertex="1">
          <mxGeometry x="1035" y="170" width="10" height="380" as="geometry" />
        </mxCell>
        <mxCell id="Qvqk4Cczss71Y9SFX0pK-72" value="" style="endArrow=none;dashed=1;html=1;" parent="1" target="Qvqk4Cczss71Y9SFX0pK-71" edge="1">
          <mxGeometry width="50" height="50" relative="1" as="geometry">
            <mxPoint x="1040" y="590" as="sourcePoint" />
            <mxPoint x="1040" y="130" as="targetPoint" />
          </mxGeometry>
        </mxCell>
        <mxCell id="Qvqk4Cczss71Y9SFX0pK-73" value="" style="endArrow=classic;html=1;entryX=0.5;entryY=0;entryDx=0;entryDy=0;" parent="1" target="Qvqk4Cczss71Y9SFX0pK-71" edge="1">
          <mxGeometry width="50" height="50" relative="1" as="geometry">
            <mxPoint x="920" y="170" as="sourcePoint" />
            <mxPoint x="1280" y="410" as="targetPoint" />
          </mxGeometry>
        </mxCell>
        <mxCell id="Qvqk4Cczss71Y9SFX0pK-74" value="1. Login&lt;br&gt;AplikasiWeb()" style="text;html=1;align=center;verticalAlign=middle;resizable=0;points=[];autosize=1;" parent="1" vertex="1">
          <mxGeometry x="930" y="140" width="90" height="30" as="geometry" />
        </mxCell>
        <mxCell id="Qvqk4Cczss71Y9SFX0pK-75" value="" style="edgeStyle=orthogonalEdgeStyle;rounded=0;orthogonalLoop=1;jettySize=auto;html=1;" parent="1" source="Qvqk4Cczss71Y9SFX0pK-78" target="Qvqk4Cczss71Y9SFX0pK-71" edge="1">
          <mxGeometry relative="1" as="geometry">
            <Array as="points">
              <mxPoint x="1120" y="520" />
              <mxPoint x="1120" y="520" />
            </Array>
          </mxGeometry>
        </mxCell>
        <mxCell id="Qvqk4Cczss71Y9SFX0pK-76" style="edgeStyle=orthogonalEdgeStyle;rounded=0;orthogonalLoop=1;jettySize=auto;html=1;entryX=0.5;entryY=0;entryDx=0;entryDy=0;" parent="1" source="Qvqk4Cczss71Y9SFX0pK-78" target="Qvqk4Cczss71Y9SFX0pK-82" edge="1">
          <mxGeometry relative="1" as="geometry">
            <Array as="points">
              <mxPoint x="1260" y="190" />
              <mxPoint x="1260" y="190" />
            </Array>
          </mxGeometry>
        </mxCell>
        <mxCell id="Qvqk4Cczss71Y9SFX0pK-77" value="" style="edgeStyle=orthogonalEdgeStyle;rounded=0;orthogonalLoop=1;jettySize=auto;html=1;" parent="1" source="Qvqk4Cczss71Y9SFX0pK-78" target="Qvqk4Cczss71Y9SFX0pK-86" edge="1">
          <mxGeometry relative="1" as="geometry">
            <Array as="points">
              <mxPoint x="1190" y="300" />
              <mxPoint x="1190" y="300" />
            </Array>
          </mxGeometry>
        </mxCell>
        <mxCell id="Qvqk4Cczss71Y9SFX0pK-78" value="" style="rounded=1;whiteSpace=wrap;html=1;" parent="1" vertex="1">
          <mxGeometry x="1154" y="180" width="10" height="340" as="geometry" />
        </mxCell>
        <mxCell id="Qvqk4Cczss71Y9SFX0pK-79" value="" style="endArrow=none;dashed=1;html=1;" parent="1" target="Qvqk4Cczss71Y9SFX0pK-78" edge="1">
          <mxGeometry width="50" height="50" relative="1" as="geometry">
            <mxPoint x="1159" y="590" as="sourcePoint" />
            <mxPoint x="1159.5" y="130" as="targetPoint" />
          </mxGeometry>
        </mxCell>
        <mxCell id="Qvqk4Cczss71Y9SFX0pK-80" value="2. PilihMenu&lt;br&gt;&lt;span style=&quot;font-family: &amp;#34;helvetica&amp;#34;&quot;&gt;Kota&lt;/span&gt;()" style="text;html=1;align=center;verticalAlign=middle;resizable=0;points=[];autosize=1;" parent="1" vertex="1">
          <mxGeometry x="1060" y="140" width="80" height="30" as="geometry" />
        </mxCell>
        <mxCell id="Qvqk4Cczss71Y9SFX0pK-81" value="" style="edgeStyle=orthogonalEdgeStyle;rounded=0;orthogonalLoop=1;jettySize=auto;html=1;" parent="1" source="Qvqk4Cczss71Y9SFX0pK-82" target="Qvqk4Cczss71Y9SFX0pK-78" edge="1">
          <mxGeometry relative="1" as="geometry">
            <Array as="points">
              <mxPoint x="1220" y="240" />
              <mxPoint x="1220" y="240" />
            </Array>
          </mxGeometry>
        </mxCell>
        <mxCell id="Qvqk4Cczss71Y9SFX0pK-82" value="" style="rounded=1;whiteSpace=wrap;html=1;" parent="1" vertex="1">
          <mxGeometry x="1275" y="190" width="10" height="50" as="geometry" />
        </mxCell>
        <mxCell id="Qvqk4Cczss71Y9SFX0pK-83" value="" style="endArrow=none;dashed=1;html=1;" parent="1" target="Qvqk4Cczss71Y9SFX0pK-82" edge="1">
          <mxGeometry width="50" height="50" relative="1" as="geometry">
            <mxPoint x="1280" y="590" as="sourcePoint" />
            <mxPoint x="1279.5" y="130" as="targetPoint" />
          </mxGeometry>
        </mxCell>
        <mxCell id="Qvqk4Cczss71Y9SFX0pK-84" value="3. Input&lt;br&gt;Form&lt;span style=&quot;font-family: &amp;#34;helvetica&amp;#34;&quot;&gt;Kota&lt;/span&gt;()" style="text;html=1;align=center;verticalAlign=middle;resizable=0;points=[];autosize=1;" parent="1" vertex="1">
          <mxGeometry x="1180" y="155" width="80" height="30" as="geometry" />
        </mxCell>
        <mxCell id="Qvqk4Cczss71Y9SFX0pK-85" value="" style="edgeStyle=orthogonalEdgeStyle;rounded=0;orthogonalLoop=1;jettySize=auto;html=1;" parent="1" source="Qvqk4Cczss71Y9SFX0pK-86" target="Qvqk4Cczss71Y9SFX0pK-78" edge="1">
          <mxGeometry relative="1" as="geometry">
            <Array as="points">
              <mxPoint x="1320" y="350" />
              <mxPoint x="1320" y="350" />
            </Array>
          </mxGeometry>
        </mxCell>
        <mxCell id="Qvqk4Cczss71Y9SFX0pK-86" value="" style="rounded=1;whiteSpace=wrap;html=1;" parent="1" vertex="1">
          <mxGeometry x="1395" y="300" width="10" height="50" as="geometry" />
        </mxCell>
        <mxCell id="Qvqk4Cczss71Y9SFX0pK-87" value="" style="endArrow=none;dashed=1;html=1;" parent="1" target="Qvqk4Cczss71Y9SFX0pK-86" edge="1">
          <mxGeometry width="50" height="50" relative="1" as="geometry">
            <mxPoint x="1400" y="590" as="sourcePoint" />
            <mxPoint x="1399.5" y="130" as="targetPoint" />
          </mxGeometry>
        </mxCell>
        <mxCell id="Qvqk4Cczss71Y9SFX0pK-88" value="" style="edgeStyle=orthogonalEdgeStyle;rounded=0;orthogonalLoop=1;jettySize=auto;html=1;" parent="1" target="Qvqk4Cczss71Y9SFX0pK-90" edge="1">
          <mxGeometry relative="1" as="geometry">
            <mxPoint x="1165" y="420" as="sourcePoint" />
            <Array as="points">
              <mxPoint x="1191" y="420" />
              <mxPoint x="1191" y="420" />
            </Array>
          </mxGeometry>
        </mxCell>
        <mxCell id="Qvqk4Cczss71Y9SFX0pK-89" value="" style="edgeStyle=orthogonalEdgeStyle;rounded=0;orthogonalLoop=1;jettySize=auto;html=1;" parent="1" source="Qvqk4Cczss71Y9SFX0pK-90" edge="1">
          <mxGeometry relative="1" as="geometry">
            <mxPoint x="1165" y="470" as="targetPoint" />
            <Array as="points">
              <mxPoint x="1321" y="470" />
              <mxPoint x="1321" y="470" />
            </Array>
          </mxGeometry>
        </mxCell>
        <mxCell id="Qvqk4Cczss71Y9SFX0pK-90" value="" style="rounded=1;whiteSpace=wrap;html=1;" parent="1" vertex="1">
          <mxGeometry x="1524" y="420" width="10" height="50" as="geometry" />
        </mxCell>
        <mxCell id="Qvqk4Cczss71Y9SFX0pK-91" value="4. ListData&lt;br&gt;&lt;span style=&quot;font-family: &amp;#34;helvetica&amp;#34;&quot;&gt;Kota&lt;/span&gt;()" style="text;html=1;align=center;verticalAlign=middle;resizable=0;points=[];autosize=1;" parent="1" vertex="1">
          <mxGeometry x="1185" y="240" width="70" height="30" as="geometry" />
        </mxCell>
        <mxCell id="Qvqk4Cczss71Y9SFX0pK-92" value="5. Update&lt;br&gt;Form&lt;span style=&quot;font-family: &amp;#34;helvetica&amp;#34;&quot;&gt;Kota&lt;/span&gt;()" style="text;html=1;align=center;verticalAlign=middle;resizable=0;points=[];autosize=1;" parent="1" vertex="1">
          <mxGeometry x="1300" y="265" width="80" height="30" as="geometry" />
        </mxCell>
        <mxCell id="Qvqk4Cczss71Y9SFX0pK-93" value="6. ListData&lt;br&gt;&lt;span style=&quot;font-family: &amp;#34;helvetica&amp;#34;&quot;&gt;Kota&lt;/span&gt;()" style="text;html=1;align=center;verticalAlign=middle;resizable=0;points=[];autosize=1;" parent="1" vertex="1">
          <mxGeometry x="1200" y="350" width="70" height="30" as="geometry" />
        </mxCell>
        <mxCell id="Qvqk4Cczss71Y9SFX0pK-94" value="7. Delete&lt;br&gt;Form&lt;span style=&quot;font-family: &amp;#34;helvetica&amp;#34;&quot;&gt;Kota&lt;/span&gt;()" style="text;html=1;align=center;verticalAlign=middle;resizable=0;points=[];autosize=1;" parent="1" vertex="1">
          <mxGeometry x="1365" y="380" width="80" height="30" as="geometry" />
        </mxCell>
        <mxCell id="Qvqk4Cczss71Y9SFX0pK-95" value="8. Data&lt;span style=&quot;font-family: &amp;#34;helvetica&amp;#34;&quot;&gt;Kota&lt;br&gt;&lt;/span&gt;Terhapus()" style="text;html=1;align=center;verticalAlign=middle;resizable=0;points=[];autosize=1;" parent="1" vertex="1">
          <mxGeometry x="1350" y="480" width="80" height="30" as="geometry" />
        </mxCell>
        <mxCell id="Qvqk4Cczss71Y9SFX0pK-96" value="9. Menu&lt;br&gt;Lainnya()" style="text;html=1;align=center;verticalAlign=middle;resizable=0;points=[];autosize=1;" parent="1" vertex="1">
          <mxGeometry x="1060" y="525" width="70" height="30" as="geometry" />
        </mxCell>
      </root>
    </mxGraphModel>
  </diagram>
</mxfile>
